gallery_item:
- album: 24in24/20240313-chamonix-pt3
  image: 2024_Chamonix_0001.jpg
  caption: Early arrival at Gare du Lyon in Paris bound for Geneva, Switzerland.
- album: 24in24/20240313-chamonix-pt3
  image: 2024_Chamonix_0002.jpg
  caption: 
- album: 24in24/20240313-chamonix-pt3
  image: 2024_Chamonix_0003.jpg
  caption: 
- album: 24in24/20240313-chamonix-pt3
  image: 2024_Chamonix_0004.jpg
  caption: 
- album: 24in24/20240313-chamonix-pt3
  image: 2024_Chamonix_0005.jpg
  caption: 
- album: 24in24/20240313-chamonix-pt3
  image: 2024_Chamonix_0006.jpg
  caption: 
- album: 24in24/20240313-chamonix-pt3
  image: 2024_Chamonix_0007.jpg
  caption: 
- album: 24in24/20240313-chamonix-pt3
  image: 2024_Chamonix_0008.jpg
  caption: 
- album: 24in24/20240313-chamonix-pt3
  image: 2024_Chamonix_0009.jpg
  caption: 
- album: 24in24/20240313-chamonix-pt3
  image: 2024_Chamonix_0010.jpg
  caption: 
- album: 24in24/20240313-chamonix-pt3
  image: 2024_Chamonix_0011.jpg
  caption: 
- album: 24in24/20240313-chamonix-pt3
  image: 2024_Chamonix_0012.jpg
  caption: 
- album: 24in24/20240313-chamonix-pt3
  image: 2024_Chamonix_0013.jpg
  caption: 
- album: 24in24/20240313-chamonix-pt3
  image: 2024_Chamonix_0014.jpg
  caption: 
- album: 24in24/20240313-chamonix-pt3
  image: 2024_Chamonix_0016.jpg
  caption: 
- album: 24in24/20240313-chamonix-pt3
  image: 2024_Chamonix_0017.jpg
  caption: 
- album: 24in24/20240313-chamonix-pt3
  image: 2024_Chamonix_0018.jpg
  caption: 
- album: 24in24/20240313-chamonix-pt3
  image: 2024_Chamonix_0019.jpg
  caption: 
- album: 24in24/20240313-chamonix-pt3
  image: 2024_Chamonix_0020.jpg
  caption: 
- album: 24in24/20240313-chamonix-pt3
  image: 2024_Chamonix_0022.jpg
  caption: 
- album: 24in24/20240313-chamonix-pt3
  image: 2024_Chamonix_0023.jpg
  caption: 
- album: 24in24/20240313-chamonix-pt3
  image: 2024_Chamonix_0024.jpg
  caption: 
- album: 24in24/20240313-chamonix-pt3
  image: 2024_Chamonix_0025.jpg
  caption: 
- album: 24in24/20240313-chamonix-pt3
  image: 2024_Chamonix_0026.jpg
  caption: 
- album: 24in24/20240313-chamonix-pt3
  image: 2024_Chamonix_0027.jpg
  caption: 
- album: 24in24/20240313-chamonix-pt3
  image: 2024_Chamonix_0028.jpg
  caption: 
- album: 24in24/20240313-chamonix-pt3
  image: 2024_Chamonix_0029.jpg
  caption: 
- album: 24in24/20240313-chamonix-pt3
  image: 2024_Chamonix_0030.jpg
  caption: 
